siren;denominationUniteLegale;trancheEffectifsUniteLegale;categorieJuridiqueUniteLegale;Libellé
59804062;REGIE DES TRANSPORTS METROPOLITAINS;51.0;4110;Établissement public national à caractère industriel ou commercial doté d'un comptable public 
300346046;AGCE NAT DEVELOP EDUCATION PERMANENTE;;4110;Établissement public national à caractère industriel ou commercial doté d'un comptable public 
301365847;ETABLISSEMENT PUBLIC FONCIER DE GRAND EST;21.0;4110;Établissement public national à caractère industriel ou commercial doté d'un comptable public 
301545315;EPA SENART;21.0;4110;Établissement public national à caractère industriel ou commercial doté d'un comptable public 
302977145;COMEDIE FRANCAISE;32.0;4110;Établissement public national à caractère industriel ou commercial doté d'un comptable public 
306771494;OFF NAT INTERPROF PRODUITS MER AQUACULTU;;4110;Établissement public national à caractère industriel ou commercial doté d'un comptable public 
306865700;FOYER DES JEUNES TRAVAILLEURS;;4110;Établissement public national à caractère industriel ou commercial doté d'un comptable public 
308213768;ETS PUBLIC AMENAGEMENT VILLE NOUVELLE;22.0;4110;Établissement public national à caractère industriel ou commercial doté d'un comptable public 
311822886;AGCE NAT DE RECUP & D ELIMIN DES DECHETS;;4110;Établissement public national à caractère industriel ou commercial doté d'un comptable public 
313320244;LABORATOIRE  NATIONAL DE METROLOGIE ET D'ESSAIS;41.0;4110;Établissement public national à caractère industriel ou commercial doté d'un comptable public 
313402455;PORT AUTONOME GUADELOUPE;;4110;Établissement public national à caractère industriel ou commercial doté d'un comptable public 
313643793;OFF NAT INTERPROF FRUITS LEGUMES VINS;;4110;Établissement public national à caractère industriel ou commercial doté d'un comptable public 
318697000;AGENCE INFORMATIQUE ADI;;4110;Établissement public national à caractère industriel ou commercial doté d'un comptable public 
325214906;CENTRE ETUDES SYSTE TECHN AVANCEES;;4110;Établissement public national à caractère industriel ou commercial doté d'un comptable public 
325366946;AGENCE POUR LA QUALITE DE L'AIR;;4110;Établissement public national à caractère industriel ou commercial doté d'un comptable public 
325826857;AGENCE FRANCAISE MAITRISE ENERGIE;;4110;Établissement public national à caractère industriel ou commercial doté d'un comptable public 
326817442;AGENCE NATIONALE CHEQUES VACANCES;31.0;4110;Établissement public national à caractère industriel ou commercial doté d'un comptable public 
329277727;OFFICE NATIONAL INTERPROF LAIT;;4110;Établissement public national à caractère industriel ou commercial doté d'un comptable public 
329277735;OFFICE NAT INTERPROF FRUITS LEGUMES HORT;;4110;Établissement public national à caractère industriel ou commercial doté d'un comptable public 
329297097;OFF.NAT.INTERPROF.PLANT.PARFUM AROM.MEDI;;4110;Établissement public national à caractère industriel ou commercial doté d'un comptable public 
329584049;OFFICE FONCIER NLE CALEDONIE DEPEND;;4110;Établissement public national à caractère industriel ou commercial doté d'un comptable public 
331057471;OFFICE DEVELOP ECONOM AGRICOLE DOM;;4110;Établissement public national à caractère industriel ou commercial doté d'un comptable public 
331118760;ECOLE NAT SUPER CREATION INDUSTRIELLE;22.0;4110;Établissement public national à caractère industriel ou commercial doté d'un comptable public 
331648568;OFFICE NAT INTERPRO VIANDE ELEVAG AVICUL;;4110;Établissement public national à caractère industriel ou commercial doté d'un comptable public 
332062173;CARREFOUR INTERNATIONAL COMMUN;;4110;Établissement public national à caractère industriel ou commercial doté d'un comptable public 
332737220;CITE DES SCIENCES ET DE L'INDUSTRIE;;4110;Établissement public national à caractère industriel ou commercial doté d'un comptable public 
334749462;CENTRE MONDIAL INFORM RESSOURCE HUMAINE;;4110;Établissement public national à caractère industriel ou commercial doté d'un comptable public 
342123361;EPA DU SECTEUR IV DE MARNE LA VALLEE;;4110;Établissement public national à caractère industriel ou commercial doté d'un comptable public 
347701468;OFF PUB AMENAGEMENT ET CONSTRUCTION;;4110;Établissement public national à caractère industriel ou commercial doté d'un comptable public 
381856723;INSTITUT NATIONAL DE LA CONSOMMATION;21.0;4110;Établissement public national à caractère industriel ou commercial doté d'un comptable public 
381984921;INSTITUT NATIONAL DE L'ENVIRONNEMENT INDUSTRIEL ET DES RISQUES;41.0;4110;Établissement public national à caractère industriel ou commercial doté d'un comptable public 
382060986;OFFICE PUBLIC AMENAGEMENT CONSTRUCTION;;4110;Établissement public national à caractère industriel ou commercial doté d'un comptable public 
383224524;OFFICE NATIONAL FORETS CENTRE GESTION;;4110;Établissement public national à caractère industriel ou commercial doté d'un comptable public 
383224722;OFFICE NATIONAL FORETS CENTRE GESTION;;4110;Établissement public national à caractère industriel ou commercial doté d'un comptable public 
383330115;ETABLISSEMENT PUBLIC FONCIER DE HAUTS-DE-FRANCE;21.0;4110;Établissement public national à caractère industriel ou commercial doté d'un comptable public 
385290309;AGENCE DE L ENVIRONNEMENT ET DE LA MAITRISE DE L ENERGIE;42.0;4110;Établissement public national à caractère industriel ou commercial doté d'un comptable public 
389892977;ETS PUBLIC RESTRUCT AMENAG RBX TOURCOING;;4110;Établissement public national à caractère industriel ou commercial doté d'un comptable public 
391406956;ETS PUBLIC PARC GRANDE HALLE VILLETTE;32.0;4110;Établissement public national à caractère industriel ou commercial doté d'un comptable public 
391718970;LA CITE DE LA MUSIQUE - PHILHARMONIE DE PARIS;41.0;4110;Établissement public national à caractère industriel ou commercial doté d'un comptable public 
397931155;CTRE DEP ENFANCE-SECTION ATELIER PROTEGE;;4110;Établissement public national à caractère industriel ou commercial doté d'un comptable public 
404132292;ETAB PUBLIC AMENAGEMENT EUROMEDITERRANEE;21.0;4110;Établissement public national à caractère industriel ou commercial doté d'un comptable public 
408386852;COLLEGE ET LYCEE AGRICOLE;;4110;Établissement public national à caractère industriel ou commercial doté d'un comptable public 
410804496;REGIE TRANSPORT DE MOUSTIERS;;4110;Établissement public national à caractère industriel ou commercial doté d'un comptable public 
410984736;SUACI MONTAGNE ALPES DU NORD;;4110;Établissement public national à caractère industriel ou commercial doté d'un comptable public 
411210511;CLUB HIPPIQUE;;4110;Établissement public national à caractère industriel ou commercial doté d'un comptable public 
412066219;CONSERVATOIRE MUNICIPAL MUSIQUE ET DANSE;;4110;Établissement public national à caractère industriel ou commercial doté d'un comptable public 
414331231;GROUPEMENT SYNDICAL;;4110;Établissement public national à caractère industriel ou commercial doté d'un comptable public 
417822632;CENTRE NATIONAL DE LA DANSE;22.0;4110;Établissement public national à caractère industriel ou commercial doté d'un comptable public 
421198649;ETS PUBLIC D'AMENAGEMENT EN GUYANE;;4110;Établissement public national à caractère industriel ou commercial doté d'un comptable public 
421506445;ECOLE NATIONAL SUPRIEURE DES METIERS DE L'IMAGE ET DU SON;21.0;4110;Établissement public national à caractère industriel ou commercial doté d'un comptable public 
422097683;ETS PUBLIC FONCIER OUEST RHONE ALPES;21.0;4110;Établissement public national à caractère industriel ou commercial doté d'un comptable public 
422817452;OFFICE NAT INTERPROF OLEAGINEUX PROTEAGI;;4110;Établissement public national à caractère industriel ou commercial doté d'un comptable public 
429696420;CTRE GERIATRIQUE INTERCOM L'OUVEZE;;4110;Établissement public national à caractère industriel ou commercial doté d'un comptable public 
434230025;OFFICE TOURISME DU PAYS DE PEZENAS;;4110;Établissement public national à caractère industriel ou commercial doté d'un comptable public 
435028535;AGENCE MISE EN VALEUR DES ESPACES URBAINS DE LA ZONE DES CINQUANTE PAS GEOMETRIQUES DE LA MARTINIQUE;12.0;4110;Établissement public national à caractère industriel ou commercial doté d'un comptable public 
439484593;AGCE MISE VALEUR ESP URB 50 PAS GEO GPE;12.0;4110;Établissement public national à caractère industriel ou commercial doté d'un comptable public 
440016046;AGCE FRANCAISE INVESTISSEMENTS INTERNAT;;4110;Établissement public national à caractère industriel ou commercial doté d'un comptable public 
440546018;INSTIT RADIOPROTECTION SURETE NUCLEAIRE;42.0;4110;Établissement public national à caractère industriel ou commercial doté d'un comptable public 
441649225;ETS PUB FONCIER P.A.C.A;21.0;4110;Établissement public national à caractère industriel ou commercial doté d'un comptable public 
441691086;LE TOUQUET PARIS PLAGE TOURISME;;4110;Établissement public national à caractère industriel ou commercial doté d'un comptable public 
442676904;EPA LA PLAINE DE FRANCE;;4110;Établissement public national à caractère industriel ou commercial doté d'un comptable public 
445401912;CENTRE NATIONAL CHANSON VARIETES JAZZ;0.0;4110;Établissement public national à caractère industriel ou commercial doté d'un comptable public 
451930051;BUSINESS FRANCE;41.0;4110;Établissement public national à caractère industriel ou commercial doté d'un comptable public 
453678252;AGENCE NATIONALE RENOVATION URBAINE;22.0;4110;Établissement public national à caractère industriel ou commercial doté d'un comptable public 
478184906;CITE ARCHITECTURE ET PATRIMOINE;22.0;4110;Établissement public national à caractère industriel ou commercial doté d'un comptable public 
480179258;THEATRE NATIONAL DE L'OPERA COMIQUE;22.0;4110;Établissement public national à caractère industriel ou commercial doté d'un comptable public 
482646726;REGIE ECOLE DE MUSIQUE;;4110;Établissement public national à caractère industriel ou commercial doté d'un comptable public 
483258596;DOMAINE NATIONAL DE CHAMBORD;22.0;4110;Établissement public national à caractère industriel ou commercial doté d'un comptable public 
485389811;GRAND PORT MARITIME DE LA ROCHELLE;22.0;4110;Établissement public national à caractère industriel ou commercial doté d'un comptable public 
488203696;OFFICE NAT INTERPROFESSIONNEL ELEVAGE PRODUCTIONS;;4110;Établissement public national à caractère industriel ou commercial doté d'un comptable public 
490159795;AGENCE FR INFO COMMUNICATION AGRICOLE RURALE;;4110;Établissement public national à caractère industriel ou commercial doté d'un comptable public 
490946886;L' AGENCE UNIQUE DE PAIEMENT;;4110;Établissement public national à caractère industriel ou commercial doté d'un comptable public 
491041794;OFFICE NATIONAL INTERPROFESSIONNEL DES GRANDES CULTURES;;4110;Établissement public national à caractère industriel ou commercial doté d'un comptable public 
493348353;ETABLISSEMENT PUBLIC FONCIER DES YVELINES;;4110;Établissement public national à caractère industriel ou commercial doté d'un comptable public 
493711485;ETABLISSEMENT PUBLIC FONCIER DES HAUTS DE SEINE;;4110;Établissement public national à caractère industriel ou commercial doté d'un comptable public 
494885072;CENTRE CULTUREL DE RENCONTRE DE NOIRLAC;11.0;4110;Établissement public national à caractère industriel ou commercial doté d'un comptable public 
495091787;ETS PUBLIC FONCIER DU VAL D'OISE;;4110;Établissement public national à caractère industriel ou commercial doté d'un comptable public 
495120008;ETABLISSEMENT PUBLIC FONCIER IDF;31.0;4110;Établissement public national à caractère industriel ou commercial doté d'un comptable public 
497872945;ETABLISSEMENT PUBLIC DU GRAND PALAIS DES CHAMPS ELYSEES;;4110;Établissement public national à caractère industriel ou commercial doté d'un comptable public 
498570431;ETABLISSEMENT PUBLIC DE COOPERATION CULTURELLE DES ARTS DE AL SCENE ET DE L IMAGE EN ILE DE FRANCE;;4110;Établissement public national à caractère industriel ou commercial doté d'un comptable public 
508858883;ETABLISSEMENT PUBLIC D'AMENAGEMENT ECOVALLEE - PLAINE DU VAR;12.0;4110;Établissement public national à caractère industriel ou commercial doté d'un comptable public 
509167680;ETABLISSEMENT PUBLIC FONCIER D OCCITANIE;3.0;4110;Établissement public national à caractère industriel ou commercial doté d'un comptable public 
510194186;ETABLISSEMENT PUBLIC FONCIER DE NOUVELLE-AQUITAINE;21.0;4110;Établissement public national à caractère industriel ou commercial doté d'un comptable public 
513000786;ETABLISSEMENT PUBLIC FONCIER DE LA VENDEE;;4110;Établissement public national à caractère industriel ou commercial doté d'un comptable public 
514185792;ETABLISSEMENT PUBLIC FONCIER BRETAGNE;12.0;4110;Établissement public national à caractère industriel ou commercial doté d'un comptable public 
519587851;ETABLISSEMENT PUBLIC PALAIS DE LA DECOUVERTE ET CITE DES SCIENCES ET DE L'INDUSTRIE;42.0;4110;Établissement public national à caractère industriel ou commercial doté d'un comptable public 
524110921;ETABLISSEMENT PUBLIC FONCIER DE LA VENDEE;11.0;4110;Établissement public national à caractère industriel ou commercial doté d'un comptable public 
525046017;SOCIETE DU GRAND PARIS;41.0;4110;Établissement public national à caractère industriel ou commercial doté d'un comptable public 
527946537;ETABLISSEMENT PUBLIC AMENAGEMENT DEFENSE SEINE ARCHE;;4110;Établissement public national à caractère industriel ou commercial doté d'un comptable public 
529715922;INSTITUT FRANCAIS;22.0;4110;Établissement public national à caractère industriel ou commercial doté d'un comptable public 
542085907;ECONOMAT DES ARMEES;32.0;4110;Établissement public national à caractère industriel ou commercial doté d'un comptable public 
552017303;VOIES NAVIGABLES DE FRANCE;;4110;Établissement public national à caractère industriel ou commercial doté d'un comptable public 
562095455;SOCIETE NATIONALE ENTREPRISE PRESSE;;4110;Établissement public national à caractère industriel ou commercial doté d'un comptable public 
582056149;BRGM;42.0;4110;Établissement public national à caractère industriel ou commercial doté d'un comptable public 
582078069;INSTITUT NAT RECHERCHE CHIMIE APPLIQUEE;;4110;Établissement public national à caractère industriel ou commercial doté d'un comptable public 
588502310;THEATRE NATIONAL DE STRASBOURG;22.0;4110;Établissement public national à caractère industriel ou commercial doté d'un comptable public 
602001786;ETABLISSEMENT PUBLIC AMENAGEMENT DEFENSE;;4110;Établissement public national à caractère industriel ou commercial doté d'un comptable public 
642036941;GRAND PARIS AMENAGEMENT;31.0;4110;Établissement public national à caractère industriel ou commercial doté d'un comptable public 
662043116;OFFICE NATIONAL DES FORETS;52.0;4110;Établissement public national à caractère industriel ou commercial doté d'un comptable public 
667350193;AMENAGEMENT VILLE NOUVELLE DU VAUDREUIL;;4110;Établissement public national à caractère industriel ou commercial doté d'un comptable public 
672049020;ENTREPRISE MINIERE ET CHIMIQUE;;4110;Établissement public national à caractère industriel ou commercial doté d'un comptable public 
682041272;FONDS INTERV REGULARIS MARCHE SUCRE;;4110;Établissement public national à caractère industriel ou commercial doté d'un comptable public 
692039514;CHAILLOT-THEATRE NATIONAL DE LA DANSE;22.0;4110;Établissement public national à caractère industriel ou commercial doté d'un comptable public 
692041585;ETABLISSEMENT PUBLIC DE LA REUNION DES MUSEES NATIONAUX ET DU GRAND PALAIS DES CHAMPS-ELYSEES;42.0;4110;Établissement public national à caractère industriel ou commercial doté d'un comptable public 
703001776;CIRAD;;4110;Établissement public national à caractère industriel ou commercial doté d'un comptable public 
708202734;ETS PUB AMENA VILLE NOUV CERGY PONTOISE;;4110;Établissement public national à caractère industriel ou commercial doté d'un comptable public 
712032143;PORT AUTONOME DE PARIS;22.0;4110;Établissement public national à caractère industriel ou commercial doté d'un comptable public 
720500206;ETS PUB FONCIER DE NORMANDIE;21.0;4110;Établissement public national à caractère industriel ou commercial doté d'un comptable public 
723620506;ETABLISSEMENT PUBLIC D'AMENAGEMENT NORD ISERE;;4110;Établissement public national à caractère industriel ou commercial doté d'un comptable public 
750756660;ETABLISSEMENT PUBLIC D'AMENAGEMENT D'ALZETTE-BELVAL;11.0;4110;Établissement public national à caractère industriel ou commercial doté d'un comptable public 
775558489;GRAND PORT MARITIME DE MARSEILLE;42.0;4110;Établissement public national à caractère industriel ou commercial doté d'un comptable public 
775604853;GRAND PORT MARITIME DE NANTES SAINT-NAZAIRE;41.0;4110;Établissement public national à caractère industriel ou commercial doté d'un comptable public 
775665912;CENTRE NATIONAL D'ETUDES SPATIALES;51.0;4110;Établissement public national à caractère industriel ou commercial doté d'un comptable public 
775666084;OFFICE NAL INTERPROF DES CEREALES ONIC;;4110;Établissement public national à caractère industriel ou commercial doté d'un comptable public 
775687700;CENTRE FRANCAIS DU COMMERCE EXTERIEUR;;4110;Établissement public national à caractère industriel ou commercial doté d'un comptable public 
775688229;CTRE SCIENTIFIQUE TECHNIQUE DU BATIMENT;41.0;4110;Établissement public national à caractère industriel ou commercial doté d'un comptable public 
775700198;GRAND PORT MARITIME DU HAVRE;42.0;4110;Établissement public national à caractère industriel ou commercial doté d'un comptable public 
775701253;GRAND PORT MARITIME DE ROUEN;32.0;4110;Établissement public national à caractère industriel ou commercial doté d'un comptable public 
775722879;OFF NAT ETUDES RECHERCHES AEROSPATIALES;51.0;4110;Établissement public national à caractère industriel ou commercial doté d'un comptable public 
776056467;UNION DES GROUPEMENTS D'ACHATS PUBLICS;42.0;4110;Établissement public national à caractère industriel ou commercial doté d'un comptable public 
781804141;GRAND PORT MARITIME DE BORDEAUX;32.0;4110;Établissement public national à caractère industriel ou commercial doté d'un comptable public 
782442909;E T S O M;;4110;Établissement public national à caractère industriel ou commercial doté d'un comptable public 
783068299;SERVICE DEPART CANAL DE SIAGNE;;4110;Établissement public national à caractère industriel ou commercial doté d'un comptable public 
783595036;GRAND PORT MARITIME DE DUNKERQUE;32.0;4110;Établissement public national à caractère industriel ou commercial doté d'un comptable public 
784276180;THEATRE NATIONAL DE L'ODEON;22.0;4110;Établissement public national à caractère industriel ou commercial doté d'un comptable public 
784301426;CAISSE NATIONALE DE PREVOYANCE;;4110;Établissement public national à caractère industriel ou commercial doté d'un comptable public 
784364135;OFFIC FR COOPER CHEMIN FER MATERIEL EQUI;;4110;Établissement public national à caractère industriel ou commercial doté d'un comptable public 
784393266;CAISSE NATIONALE DE L'ENERGIE;;4110;Établissement public national à caractère industriel ou commercial doté d'un comptable public 
784396079;OPERA NATIONAL DE PARIS;42.0;4110;Établissement public national à caractère industriel ou commercial doté d'un comptable public 
784620809;FONDS ORIENTATION REGULA MARCHE AGRICOLE;;4110;Établissement public national à caractère industriel ou commercial doté d'un comptable public 
784804593;THEATRE NATIONAL DE LA COLLINE;22.0;4110;Établissement public national à caractère industriel ou commercial doté d'un comptable public 
789401858;GRAND PORT MARITIME DE LA REUNION;32.0;4110;Établissement public national à caractère industriel ou commercial doté d'un comptable public 
789433661;GRAND PORT MARITIME DE LA MARTINIQUE;22.0;4110;Établissement public national à caractère industriel ou commercial doté d'un comptable public 
789899242;GRAND PORT MARITIME DE LA GUYANE;12.0;4110;Établissement public national à caractère industriel ou commercial doté d'un comptable public 
794538520;GRAND PORT MARITIME DE LA GUADELOUPE;22.0;4110;Établissement public national à caractère industriel ou commercial doté d'un comptable public 
899614804;GRAND PORT FLUVIO-MARITIME DE L'AXE SEINE;;4110;Établissement public national à caractère industriel ou commercial doté d'un comptable public 
970201497;ETS PUBLIC AMENAGEM VILLE NOUVELLE EVRY;;4110;Établissement public national à caractère industriel ou commercial doté d'un comptable public 
