siren;denominationUniteLegale;trancheEffectifsUniteLegale;categorieJuridiqueUniteLegale;Libellé
200094332;COLLECTIVITE EUROPEENNE D'ALSACE;2.0;7220;Département 
220100010;DEPARTEMENT DE L AIN;51.0;7220;Département 
220200018;REGIE DEP DES TRANSPORTS DE L AISNE;;7220;Département 
220200026;DEPARTEMENT DE L AISNE;51.0;7220;Département 
220300016;DEPARTEMENT DE L ALLIER;42.0;7220;Département 
220400014;DEPARTEMENT DES ALPES DE HAUTE PROVENCE;42.0;7220;Département 
220500011;DEPARTEMENT DES HAUTES ALPES;42.0;7220;Département 
220600019;DEPARTEMENT DES ALPES MARITIMES;51.0;7220;Département 
220700017;DEPARTEMENT DE L ARDECHE;51.0;7220;Département 
220800031;FEDERATION DEP ELECTRICITE DES ARDENNES;;7220;Département 
220800049;DEPARTEMENT DES ARDENNES;42.0;7220;Département 
220900013;DEPARTEMENT DE L ARIEGE;42.0;7220;Département 
221000011;SYNDICAT DEPARTEMENTAL DU GAZ DE L'AUBE;;7220;Département 
221000029;SYND DEP D'ELECTRIFICATION DE L'AUBE;;7220;Département 
221000037;SYND DEP DE DISTRIBUTION D'EAU DE L'AUBE;;7220;Département 
221000052;DEPARTEMENT DE L AUBE;42.0;7220;Département 
221100019;DEPARTEMENT DE L AUDE;51.0;7220;Département 
221200017;DEPARTEMENT DE L AVEYRON;42.0;7220;Département 
221300015;DEPARTEMENT DES BOUCHES DU RHONE;52.0;7220;Département 
221401185;DEPARTEMENT DU CALVADOS;51.0;7220;Département 
221500010;DEPARTEMENT DU CANTAL;42.0;7220;Département 
221600018;DEPARTEMENT DE LA CHARENTE;51.0;7220;Département 
221700016;DEPARTEMENT DE LA CHARENTE-MARITIME;51.0;7220;Département 
221800014;DEPARTEMENT DU CHER;42.0;7220;Département 
221927205;DEPARTEMENT DE LA CORREZE;42.0;7220;Département 
222000028;DEPARTEMENT DE LA CORSE DU SUD;;7220;Département 
222000036;DEPARTEMENT DE LA HAUTE CORSE;;7220;Département 
222100018;DEPARTEMENT DE COTE D OR;51.0;7220;Département 
222200016;DEPARTEMENT DES COTES D'ARMOR;51.0;7220;Département 
222309627;DEPARTEMENT DE LA CREUSE;42.0;7220;Département 
222400012;DEPARTEMENT DE LA DORDOGNE;51.0;7220;Département 
222500019;DEPARTEMENT DU DOUBS;51.0;7220;Département 
222600017;DEPARTEMENT DE LA DROME;51.0;7220;Département 
222702292;DEPARTEMENT DE L EURE;51.0;7220;Département 
222800013;DEPARTEMENT DE L'EURE ET LOIR;51.0;7220;Département 
222900011;DEPARTEMENT DU FINISTERE;51.0;7220;Département 
223000019;DEPARTEMENT DU GARD;51.0;7220;Département 
223100017;DEPARTEMENT DE LA HAUTE GARONNE;52.0;7220;Département 
223200015;DEPARTEMENT DU GERS;42.0;7220;Département 
223300013;DEPARTEMENT DE LA GIRONDE;52.0;7220;Département 
223400011;DEPARTEMENT DE L HERAULT;52.0;7220;Département 
223500018;DEPARTEMENT D ILLE ET VILAINE;51.0;7220;Département 
223600016;DEPARTEMENT DE L'INDRE;42.0;7220;Département 
223700014;DEPARTEMENT DE L'INDRE ET LOIRE;51.0;7220;Département 
223800012;DEPARTEMENT DE L ISERE;51.0;7220;Département 
223900010;DEPARTEMENT DU JURA;42.0;7220;Département 
224000018;DEPARTEMENT DES LANDES;51.0;7220;Département 
224100016;DEPARTEMENT DU LOIR ET CHER;42.0;7220;Département 
224200014;DEPARTEMENT DE LA LOIRE;51.0;7220;Département 
224300012;DEPARTEMENT DE LA HAUTE LOIRE;42.0;7220;Département 
224400028;DEPARTEMENT DE LA LOIRE-ATLANTIQUE;52.0;7220;Département 
224500017;DEPARTEMENT DU LOIRET;51.0;7220;Département 
224600015;DEPARTEMENT DU LOT;42.0;7220;Département 
224700013;DEPARTEMENT DU LOT ET GARONNE;42.0;7220;Département 
224800011;DEPARTEMENT DE LA LOZERE;41.0;7220;Département 
224900019;DEPARTEMENT DE MAINE ET LOIRE;51.0;7220;Département 
225005024;DEPARTEMENT DE LA MANCHE;51.0;7220;Département 
225100015;DEPARTEMENT DE LA MARNE;42.0;7220;Département 
225200013;DEPARTEMENT DE LA HAUTE-MARNE;42.0;7220;Département 
225200039;SERVICE DEPARTEMENTAL D'AIDE AU LOGEMENT;;7220;Département 
225300011;DEPARTEMENT DE LA MAYENNE;42.0;7220;Département 
225400019;DEPARTEMENT DE MEURTHE ET MOSELLE;51.0;7220;Département 
225500016;DEPARTEMENT DE LA MEUSE;42.0;7220;Département 
225500024;LABORATOIRE VETERINAIRE;;7220;Département 
225600014;DEPARTEMENT DU MORBIHAN;51.0;7220;Département 
225700012;DEPARTEMENT DE LA MOSELLE;51.0;7220;Département 
225800010;DEPARTEMENT DE LA NIEVRE;42.0;7220;Département 
225900018;DEPARTEMENT DU NORD;53.0;7220;Département 
226000016;DEPARTEMENT DE L'OISE;51.0;7220;Département 
226100014;DEPARTEMENT DE L'ORNE;42.0;7220;Département 
226200012;DEPARTEMENT DU PAS DE CALAIS;52.0;7220;Département 
226300010;DEPARTEMENT DU PUY DE DOME;51.0;7220;Département 
226300028;CENTRE DEPART GESTION FONCT PUBL TERRIT;;7220;Département 
226400018;DEPARTEMENT DES PYRENEES ATLANTIQUES;51.0;7220;Département 
226500015;DEPARTEMENT DES HAUTES PYRENEES;42.0;7220;Département 
226600013;DEPARTEMENT DES PYRENEES-ORIENTALES;51.0;7220;Département 
226700011;DEPARTEMENT DU BAS RHIN;51.0;7220;Département 
226800019;DEPARTEMENT DU HAUT RHIN;51.0;7220;Département 
226900017;DEPARTEMENT DU RHONE;42.0;7220;Département 
227000015;DEPARTEMENT DE HAUTE SAONE;42.0;7220;Département 
227100013;DEPARTEMENT DE SAONE ET LOIRE;51.0;7220;Département 
227200011;ABBAYE DE L'EPAU YVRE L'EVEQUE;;7220;Département 
227200029;DEPARTEMENT DE LA SARTHE;51.0;7220;Département 
227300019;DEPARTEMENT DE LA SAVOIE;51.0;7220;Département 
227400017;DEPARTEMENT DE LA HAUTE SAVOIE;51.0;7220;Département 
227500055;DEPARTEMENT DE PARIS;0.0;7220;Département 
227605409;DEPARTEMENT DE LA SEINE MARITIME;52.0;7220;Département 
227700010;DEPARTEMENT DE SEINE ET MARNE;51.0;7220;Département 
227806460;DEPARTEMENT DES YVELINES;51.0;7220;Département 
227900016;DEPARTEMENT DES DEUX SEVRES;42.0;7220;Département 
228000014;DEPARTEMENT DE LA SOMME;51.0;7220;Département 
228100012;DEPARTEMENT DU TARN;51.0;7220;Département 
228200010;DEPARTEMENT DU TARN ET GARONNE;42.0;7220;Département 
228300018;DEPARTEMENT DU VAR;52.0;7220;Département 
228400016;DEPARTEMENT DU VAUCLUSE;51.0;7220;Département 
228500013;DEPARTEMENT DE VENDEE;51.0;7220;Département 
228600011;DEPARTEMENT DE LA VIENNE;42.0;7220;Département 
228708517;DEPARTEMENT DE LA HAUTE VIENNE;42.0;7220;Département 
228800017;DEPARTEMENT DES VOSGES;42.0;7220;Département 
228900015;DEPARTEMENT DE L'YONNE;42.0;7220;Département 
229000013;DEPARTEMENT DU TERRITOIRE DE BELFORT;41.0;7220;Département 
229102280;DEPARTEMENT DE L' ESSONNE;51.0;7220;Département 
229200506;DEPARTEMENT DES HAUTS-DE-SEINE;52.0;7220;Département 
229300082;DEPARTEMENT DE LA SEINE SAINT DENIS;52.0;7220;Département 
229400288;DEPARTEMENT DU VAL DE MARNE;52.0;7220;Département 
229501275;DEPARTEMENT DU VAL D OISE;51.0;7220;Département 
229710017;DEPARTEMENT DE LA GUADELOUPE;51.0;7220;Département 
229720016;DEPARTEMENT DE LA MARTINIQUE;;7220;Département 
229730015;DEPARTEMENT DE LA GUYANE FRANCAISE;;7220;Département 
229740014;DEPARTEMENT DE LA REUNION;52.0;7220;Département 
