siren;denominationUniteLegale;trancheEffectifsUniteLegale;categorieJuridiqueUniteLegale;Libellé
200012490;PROVINCE SUD;;7229;(Autre) Collectivité territoriale 
200012656;PROVINCE DU NORD;;7229;(Autre) Collectivité territoriale 
200012979;PROVINCE DES ILES;;7229;(Autre) Collectivité territoriale 
200015816;CONSEIL TERRITORIAL ST BARTHELEMY;;7229;(Autre) Collectivité territoriale 
200046977;METROPOLE DE LYON;52.0;7229;(Autre) Collectivité territoriale 
200052678;COLLECTIVITE TERRITORIALE DE GUYANE;51.0;7229;(Autre) Collectivité territoriale 
200055507;COLLECTIVITE TERRITORIALE DE MARTINIQUE;51.0;7229;(Autre) Collectivité territoriale 
200072601;AGENCE D'ATTRACTIVITE PONT L'EVEQUE INTERCOM - 2APLI;;7229;(Autre) Collectivité territoriale 
200076958;COLLECTIVITE DE CORSE;51.0;7229;(Autre) Collectivité territoriale 
200097673;SOCIETE PUBLIQUE DES ECOLES MARSEILLAISES;;7229;(Autre) Collectivité territoriale 
217500016;VILLE DE PARIS;53.0;7229;(Autre) Collectivité territoriale 
229840004;TERRITOIRE DES TERRES AUSTRALES ET ANTARCTIQUES FRANCAISES;22.0;7229;(Autre) Collectivité territoriale 
229850003;DEPARTEMENT DE MAYOTTE;;7229;(Autre) Collectivité territoriale 
229880018;TERRITOIRE DE NOUVELLE-CALEDONIE;;7229;(Autre) Collectivité territoriale 
