siren;denominationUniteLegale;trancheEffectifsUniteLegale;categorieJuridiqueUniteLegale;Libellé
200027183;PERPIGNAN MEDITERRANEE METROPOLE COMMUNAUTE URBAINE;41.0;7343;Communauté urbaine 
200033579;COMMUNAUTE URBAINE D'ARRAS;32.0;7343;Communauté urbaine 
200059889;GRAND PARIS SEINE ET OISE;42.0;7343;Communauté urbaine 
200065597;CU CAEN LA MER;51.0;7343;Communauté urbaine 
200067213;COMMUNAUTE URBAINE DU GRAND REIMS;42.0;7343;Communauté urbaine 
200069854;GRAND POITIERS COMMUNAUTE URBAINE;42.0;7343;Communauté urbaine 
200084952;LE HAVRE SEINE METROPOLE;42.0;7343;Communauté urbaine 
240600577;COMMUNAUTE URBAINE NICE COTE D'AZUR;;7343;Communauté urbaine 
241300391;COMMUN URBAIN MARSEILLE PROVENC METROPOL;;7343;Communauté urbaine 
242500361;CU GRAND BESANCON METROPOLE;42.0;7343;Communauté urbaine 
244900015;COMMUNAUTE URBAINE ANGERS LOIRE METROPOLE;41.0;7343;Communauté urbaine 
245000237;COMMUNAUTE URBAINE DE CHERBOURG;;7343;Communauté urbaine 
245900428;COMMUNAUTE URBAINE DE DUNKERQUE;42.0;7343;Communauté urbaine 
246100663;COMMUNAUTE URBAINE D'ALENCON;41.0;7343;Communauté urbaine 
246201032;COMMUNAUTE URBAINE D'ARRAS;;7343;Communauté urbaine 
246401772;CAISSE DES ECOLES;;7343;Communauté urbaine 
246401780;CAISSE DES ECOLES;;7343;Communauté urbaine 
246900245;COMMUNAUTE URBAINE DE LYON;;7343;Communauté urbaine 
247100290;CU LE CREUSOT MONTCEAU-LES-MINES;32.0;7343;Communauté urbaine 
247200132;LE MANS METROPOLE COMMUNAUTE URBAINE;42.0;7343;Communauté urbaine 
248719312;CU LIMOGES METROPOLE;41.0;7343;Communauté urbaine 
